<svg width="27" height="23" viewBox="0 0 27 23" fill="none" xmlns="http://www.w3.org/2000/svg">
<path d="M26.2295 7.52889C25.8779 7.08782 25.3505 6.83478 24.7823 6.83478H19.6547L16.8743 0.468081C16.7019 0.0733377 16.2421 -0.107055 15.8473 0.0654335C15.4525 0.237818 15.2722 0.697667 15.4447 1.09246L17.9524 6.83483H8.67234L11.1801 1.09246C11.3525 0.697667 11.1723 0.23787 10.7775 0.0654335C10.3827 -0.107055 9.92287 0.0732337 9.75049 0.468081L6.97002 6.83483H1.84247C1.2743 6.83483 0.746849 7.08782 0.395267 7.52895C0.0501327 7.96201 -0.0772189 8.51874 0.0458686 9.05654L2.78411 21.0169C2.97532 21.852 3.7141 22.4353 4.58071 22.4353H22.0441C22.9107 22.4353 23.6494 21.852 23.8407 21.0169L26.5789 9.05649C26.702 8.51869 26.5746 7.96196 26.2295 7.52889ZM22.0441 20.8752H4.58071C4.44826 20.8752 4.33225 20.7883 4.30484 20.6686L1.5666 8.70839C1.54512 8.61453 1.58116 8.54391 1.61527 8.50122C1.64689 8.46149 1.7185 8.39487 1.84247 8.39487H6.28875L6.08444 8.86273C5.91205 9.25753 6.09229 9.71732 6.48708 9.88976C6.58869 9.93417 6.69457 9.95518 6.79883 9.95518C7.0995 9.95518 7.38603 9.7803 7.51406 9.48717L7.99107 8.39498H18.6338L19.1108 9.48717C19.2388 9.78035 19.5254 9.95518 19.826 9.95518C19.9302 9.95518 20.0362 9.93417 20.1378 9.88976C20.5326 9.71738 20.7129 9.25753 20.5404 8.86273L20.3361 8.39487H24.7824C24.9064 8.39487 24.978 8.46149 25.0096 8.50122C25.0437 8.54396 25.0797 8.61458 25.0583 8.70834L22.32 20.6687C22.2926 20.7883 22.1765 20.8752 22.0441 20.8752Z" fill="white"/>
</svg>
