<svg width="24" height="24" viewBox="0 0 24 24" fill="none" xmlns="http://www.w3.org/2000/svg">
<path d="M12.2006 0.194336C5.84701 0.194336 0.696289 5.34436 0.696289 11.6971C0.696289 18.0498 5.84701 23.1998 12.2006 23.1998C12.5472 23.1998 12.8925 23.1843 13.2361 23.1534C13.5555 23.1248 13.8721 23.0809 14.1863 23.0261L14.3071 23.0047C20.1486 21.9148 24.1988 16.556 23.6525 10.6395C23.1061 4.72298 18.143 0.196208 12.2006 0.194336V0.194336ZM11.2764 22.3924H11.2492C10.9509 22.366 10.6549 22.3261 10.3615 22.275C10.3446 22.272 10.3278 22.2701 10.3113 22.2669C10.0244 22.2156 9.74057 22.152 9.45952 22.0776L9.39155 22.0602C9.11742 21.9859 8.84629 21.8996 8.5791 21.8037C8.55138 21.7938 8.52348 21.785 8.49577 21.7747C8.23382 21.6785 7.97654 21.5706 7.7232 21.454C7.69174 21.44 7.66029 21.4265 7.62883 21.4115C7.38036 21.2966 7.13675 21.167 6.89783 21.0307C6.86412 21.0116 6.83004 20.9925 6.79634 20.9736C6.56116 20.8364 6.33141 20.6892 6.10597 20.5338C6.07189 20.51 6.03744 20.487 6.00355 20.4632C5.78204 20.3062 5.56614 20.1394 5.35587 19.9649L5.29801 19.9143V16.6816C5.30082 14.3533 7.18768 12.4667 9.51625 12.4639H14.8849C17.2135 12.4667 19.1004 14.3533 19.1032 16.6816V19.9147L19.0522 19.9572C18.8378 20.1362 18.6178 20.3054 18.3918 20.4653C18.3619 20.4863 18.3315 20.5063 18.3018 20.5269C18.0737 20.6853 17.84 20.8343 17.6007 20.9744C17.5708 20.9918 17.5401 21.0082 17.5103 21.0255C17.2678 21.1634 17.0212 21.2937 16.7697 21.4111C16.7409 21.4246 16.7119 21.4372 16.6827 21.4495C16.4273 21.5673 16.1677 21.6757 15.9039 21.7727C15.8777 21.7824 15.8513 21.7908 15.8271 21.8C15.5586 21.8962 15.2864 21.9833 15.0108 22.058L14.9447 22.0745C14.6632 22.1488 14.3792 22.2128 14.0919 22.2643C14.0755 22.2673 14.059 22.2693 14.0425 22.272C13.7487 22.3233 13.4523 22.3631 13.1539 22.3897H13.1267C12.82 22.4161 12.5131 22.4304 12.2025 22.4304C11.8918 22.4304 11.5825 22.4187 11.2764 22.3924ZM19.8701 19.2038V16.6816C19.8669 13.93 17.6369 11.7003 14.8849 11.6971H9.51625C6.76432 11.7003 4.53424 13.93 4.53106 16.6816V19.2034C0.400817 14.9886 0.446879 8.23091 4.63404 4.07258C8.8212 -0.0855567 15.58 -0.0855567 19.7671 4.07258C23.9543 8.23091 24.0004 14.9886 19.8701 19.2034V19.2038Z" fill="black"/>
<path d="M12.201 3.26172C10.0831 3.26172 8.36621 4.97833 8.36621 7.09597C8.36621 9.2136 10.0831 10.9302 12.201 10.9302C14.3189 10.9302 16.0358 9.2136 16.0358 7.09597C16.0335 4.97927 14.318 3.26397 12.201 3.26172ZM12.201 10.1634C10.5066 10.1634 9.13317 8.79011 9.13317 7.09597C9.13317 5.40182 10.5066 4.02857 12.201 4.02857C13.8954 4.02857 15.2688 5.40182 15.2688 7.09597C15.267 8.78918 13.8944 10.1615 12.201 10.1634Z" fill="black"/>
</svg>
