<svg width="23" height="24" viewBox="0 0 23 24" fill="none" xmlns="http://www.w3.org/2000/svg">
<line x1="22.2784" y1="1.3057" x2="1.14666" y2="22.4374" stroke="black"/>
<line x1="1.03076" y1="4.37598" x2="1.03076" y2="22.1847" stroke="black"/>
<line x1="18.3394" y1="22.6846" x2="0.530611" y2="22.6846" stroke="black"/>
</svg>
