<svg width="22" height="22" viewBox="0 0 22 22" fill="none" xmlns="http://www.w3.org/2000/svg">
<path d="M21.317 6.30588C20.9726 5.92373 20.478 5.70498 19.9586 5.70507H17.6067V4.63537C17.6037 2.07655 15.4937 0.00294167 12.89 0H9.26169C6.65795 0.00294167 4.54793 2.07655 4.54493 4.63537V5.70507H2.19309C1.19119 5.70502 0.378952 6.50324 0.378906 7.48785C0.378906 7.55939 0.38326 7.63084 0.392013 7.70184L1.69819 18.5725C1.89888 20.1816 3.28819 21.3916 4.93788 21.394H17.2138C18.8643 21.3923 20.2547 20.1818 20.4553 18.5718L21.7596 7.70362C21.8223 7.19694 21.6612 6.68816 21.317 6.30588ZM5.27059 4.63537C5.27317 2.47025 7.05856 0.715674 9.26169 0.713133H12.89C15.0931 0.715674 16.8785 2.47025 16.8811 4.63537V5.70507H5.27059V4.63537ZM17.6067 9.27073V9.98386H16.8811V9.27073H17.6067ZM5.27059 9.27073V9.98386H4.54493V9.27073H5.27059ZM21.0391 7.61876L19.7347 18.4869C19.5783 19.7387 18.4971 20.6797 17.2138 20.6809H4.93788C3.65506 20.6799 2.57406 19.7396 2.41732 18.4883L1.11259 7.61733C1.03984 7.03091 1.46462 6.49753 2.06138 6.42604C2.1051 6.42083 2.1491 6.4182 2.19309 6.4182H4.54493V8.5576H4.18211C3.98174 8.5576 3.81928 8.71725 3.81928 8.91416V10.3404C3.81928 10.5373 3.98174 10.697 4.18211 10.697H5.63342C5.83379 10.697 5.99624 10.5373 5.99624 10.3404V8.91416C5.99624 8.71725 5.83379 8.5576 5.63342 8.5576H5.27059V6.4182H16.8811V8.5576H16.5182C16.3179 8.5576 16.1554 8.71725 16.1554 8.91416V10.3404C16.1554 10.5373 16.3179 10.697 16.5182 10.697H17.9695C18.1699 10.697 18.3324 10.5373 18.3324 10.3404V8.91416C18.3324 8.71725 18.1699 8.5576 17.9695 8.5576H17.6067V6.4182H19.9586C20.5597 6.41811 21.0471 6.89693 21.0472 7.48772C21.0473 7.53153 21.0445 7.5753 21.0391 7.61876Z" fill="black"/>
</svg>
