<svg width="21" height="21" viewBox="0 0 21 21" fill="none" xmlns="http://www.w3.org/2000/svg">
<path d="M16.1314 13.2468L14.2246 11.3467C13.7918 10.913 13.0894 10.9121 12.6556 11.3449C12.6549 11.3455 12.6544 11.3461 12.6537 11.3467L11.5612 12.4392C11.4786 12.5221 11.3483 12.5335 11.2525 12.4664C10.6545 12.0485 10.0948 11.5784 9.57983 11.0617C9.11861 10.6016 8.69433 10.1058 8.31089 9.57904C8.24139 9.48441 8.25149 9.3532 8.33463 9.2703L9.45427 8.15066C9.88654 7.71755 9.88654 7.01626 9.45427 6.58315L7.5475 4.67638C7.10811 4.25631 6.416 4.25631 5.97662 4.67638L5.3727 5.28029C4.46065 6.18209 4.13505 7.52114 4.53126 8.74102C4.82692 9.63351 5.24483 10.4807 5.77304 11.2585C6.24857 11.9716 6.79412 12.6353 7.40162 13.24C8.06207 13.9051 8.79365 14.4956 9.58321 15.0009C10.4512 15.5672 11.4042 15.991 12.4061 16.2562C12.6636 16.3197 12.9279 16.3516 13.1932 16.3512C14.1025 16.3456 14.9725 15.9796 15.6123 15.3333L16.1314 14.8142C16.5636 14.3812 16.5636 13.6799 16.1314 13.2468ZM15.6509 14.3515C15.6505 14.3519 15.65 14.3524 15.6496 14.3528L15.6529 14.3427L15.1338 14.8618C14.4669 15.5372 13.4955 15.8151 12.5722 15.5946C11.642 15.3457 10.7578 14.9493 9.95294 14.4207C9.20521 13.9428 8.51227 13.3842 7.88669 12.7548C7.31108 12.1834 6.79396 11.556 6.34293 10.8819C5.84958 10.1566 5.4591 9.36652 5.18257 8.53407C4.86556 7.55612 5.12826 6.48304 5.86115 5.76211L6.46507 5.15819C6.63297 4.98953 6.90581 4.98893 7.07443 5.15684C7.07487 5.15728 7.07535 5.15771 7.07578 5.15819L8.98255 7.06497C9.15122 7.23287 9.15181 7.50571 8.98391 7.67433C8.98347 7.67477 8.98303 7.67521 8.98255 7.67568L7.86291 8.79533C7.54165 9.11309 7.50125 9.61805 7.76793 9.98285C8.17288 10.5386 8.62102 11.0616 9.10812 11.547C9.6512 12.0924 10.2416 12.5886 10.8724 13.0297C11.2369 13.2839 11.731 13.241 12.0463 12.9279L13.1286 11.8286C13.2965 11.6599 13.5694 11.6593 13.738 11.8272C13.7384 11.8277 13.7388 11.8281 13.7393 11.8286L15.6495 13.7422C15.8182 13.91 15.8188 14.1828 15.6509 14.3515Z" fill="black"/>
<circle cx="10.4094" cy="10.3557" r="9.69612" stroke="black" stroke-width="0.7"/>
</svg>
