<svg width="21" height="20" viewBox="0 0 21 20" fill="none" xmlns="http://www.w3.org/2000/svg">
<path d="M18.5458 0H2.89364C1.69502 0 0.719727 0.975289 0.719727 2.17391V17.8261C0.719727 19.0247 1.69502 20 2.89364 20H18.5458C19.7444 20 20.7197 19.0247 20.7197 17.8261V2.17391C20.7197 0.975289 19.7444 0 18.5458 0ZM9.85016 13.0435H6.80668V10.4348H9.85016C10.0901 10.4348 10.2849 10.2399 10.2849 10V7.3913C10.2849 5.7131 11.6506 4.34783 13.3284 4.34783H16.3719V6.95652H13.3284C13.0879 6.95652 12.8936 7.15141 12.8936 7.3913V10C12.8936 10.2399 13.0879 10.4348 13.3284 10.4348H16.3719V13.0435H13.3284C13.0879 13.0435 12.8936 13.2384 12.8936 13.4783V19.1304H10.2849V13.4783C10.2849 13.2384 10.0901 13.0435 9.85016 13.0435ZM19.8502 17.8261C19.8502 18.5451 19.2649 19.1304 18.5458 19.1304H13.7632V13.913H16.8067C17.0472 13.913 17.2415 13.7182 17.2415 13.4783V10C17.2415 9.76011 17.0472 9.56522 16.8067 9.56522H13.7632V7.82609H16.8067C17.0472 7.82609 17.2415 7.6312 17.2415 7.3913V3.91304C17.2415 3.67315 17.0472 3.47826 16.8067 3.47826H13.3284C11.1706 3.47826 9.41538 5.23395 9.41538 7.3913V9.56522H6.3719C6.13201 9.56522 5.93712 9.76011 5.93712 10V13.4783C5.93712 13.7182 6.13201 13.913 6.3719 13.913H9.41538V19.1304H2.89364C2.17459 19.1304 1.58929 18.5451 1.58929 17.8261V2.17391C1.58929 1.45487 2.17459 0.869565 2.89364 0.869565H18.5458C19.2649 0.869565 19.8502 1.45487 19.8502 2.17391V17.8261Z" fill="black"/>
</svg>
